{
    "$schema": "https://themost-framework.github.io/themost/models/2018/2/schema.json",
    "@id": "https://universis.io/schemas/PersonAvailability",
    "name": "PersonAvailability",
    "title": "PersonAvailabilities",
    "abstract": false,
    "sealed": false,
    "version": "1.0",
    "fields": [
        {
            "@id": "https://themost.io/schemas/id",
            "name": "id",
            "title": "id",
            "description": "The identifier of the item.",
            "type": "Counter",
            "primary": true
        },
        {
            "@id": "http://schema.org/account",
            "name": "user",
            "title": "user",
            "type": "User"
        },
        {
            "@id": "http://schema.org/eventHoursSpecification",
            "name": "eventHoursSpecification",
            "title": "eventHoursSpecification",
            "description": "Event Hours Specification.",
            "type": "EventHoursSpecification"
        },
        {
            "@id": "https://themost.io/schemas/conditional",
            "name": "conditional",
            "title": "Conditional",
            "type": "Boolean",
            "nullable": false,
            "value": "javascript:return false;"
        }
    ],
    "eventListeners": [

    ],
     "constraints": [
            {
            "type": "unique",
            "fields": [
                    "user", "eventHoursSpecification"
                ]
            }
        ],
    "privileges": [
        {
            "mask": 1,
            "type": "global",
            "account": "*"
        },
        {
            "mask": 15,
            "type": "global"
        },
        {
            "mask": 15,
            "type": "global",
            "account": "Administrators"
        }
    ]
}
